Removed Pin From Net: NetName=IMD_DI_12V_IMD_LED Pin=LED_IND-1
Removed Pin From Net: NetName=TSAL_DI_12V_TSOFF_LED Pin=LED_IND-3
Change Component Designator: OldDesignator=BUZZER NewDesignator=BUZZER1
Added Pin To Net: NetName=TSAL_DI_12V_TSOFF_LED Pin=LED_IND-1
Added Pin To Net: NetName=IMD_DI_12V_IMD_LED Pin=LED_IND-3
