Removed Pin From Net: NetName=LV_3V3_PRT Pin=POS_0-1
Removed Pin From Net: NetName=NetF5_1 Pin=POS_0-2
Removed Pin From Net: NetName=conn_0_out_+ Pin=POS_0-3
Removed Pin From Net: NetName=LV_3V3_PRT Pin=POS_1-1
Removed Pin From Net: NetName=conn_1_out_+ Pin=POS_1-3
Removed Pin From Net: NetName=NetR19_2 Pin=R19-2
Removed Pin From Net: NetName=NetR19_2 Pin=R25-2
Removed Pin From Net: NetName=NetR19_2 Pin=R29-2
Removed Pin From Net: NetName=NetR57_2 Pin=X6-1
Removed Pin From Net: NetName=NetR57_2 Pin=X6-3
Removed Pin From Net: NetName=NetR57_2 Pin=X6-5
Change Component Designator: OldDesignator=X3 NewDesignator=GP1
Change Component Designator: OldDesignator=X6 NewDesignator=GP0
Added Pin To Net: NetName=NetR57_2 Pin=F5-2
Added Pin To Net: NetName=NetR19_2 Pin=F6-1
Added Pin To Net: NetName=NetF5_1 Pin=GP0-1
Added Pin To Net: NetName=NetF5_1 Pin=GP0-3
Added Pin To Net: NetName=NetF5_1 Pin=GP0-5
Added Pin To Net: NetName=conn_0_out_+ Pin=GPIO-1
Added Pin To Net: NetName=conn_1_out_+ Pin=GPIO-3
Change Net Name : Old Net Name=NetR19_2 New Net Name=NetF6_1
Change Net Name : Old Net Name=NetR57_2 New Net Name=NetF5_2
Added Pin To Net: NetName=NetF6_2 Pin=F6-2
Added Pin To Net: NetName=NetF6_2 Pin=R19-2
Added Pin To Net: NetName=NetF6_2 Pin=R25-2
Added Pin To Net: NetName=NetF6_2 Pin=R29-2
Added Net: Name=NetF6_2
