Change Component Designator: Old Designator=DH? New Designator=DH5
Change Component Designator: Old Designator=DH? New Designator=DH6
Change Component Designator: Old Designator=DH? New Designator=DH7
Change Component Designator: Old Designator=DH? New Designator=DH8
