Removed Pin From Net: NetName=LV_12V_PRT Pin=F11-1
Removed Pin From Net: NetName=LV_8V_PRT Pin=F12-2
Removed Pin From Net: NetName=NetF7_2 Pin=IMD_IND-1
Removed Pin From Net: NetName=NetF5_2 Pin=R58-2
Removed Pin From Net: NetName=NetF5_2 Pin=R59-2
Removed Pin From Net: NetName=LV_5V_PRT Pin=X0_5V-2
Removed Pin From Net: NetName=LV_12V_PRT Pin=X0_12V-2
Removed Pin From Net: NetName=LV_3V3_PRT Pin=X1_3V3-2
Removed Pin From Net: NetName=LV_5V_PRT Pin=X1_5V-2
Change Component Footprint: Designator=F5 Old Footprint=FUSE_0603 New Footprint=FUSE_1206
Change Component Footprint: Designator=F6 Old Footprint=FUSE_0603 New Footprint=FUSE_1206
Change Component Footprint: Designator=F7 Old Footprint=FUSE_0603 New Footprint=FUSE_1206
Change Component Footprint: Designator=F8 Old Footprint=FUSE_0603 New Footprint=FUSE_1206
Change Component Footprint: Designator=F9 Old Footprint=FUSE_0603 New Footprint=FUSE_1206
Change Component Footprint: Designator=F10 Old Footprint=FUSE_0603 New Footprint=FUSE_1206
Change component parameters: Designator = "F5" ("F5"); Footprint = "FUSE_0603"; UniqueID = "\LCXYYCOI\RZXJPWLK" ("\LCXYYCOI\RZXJPWLK")
Change component parameters (AddParameter): Name = "Current"; Value = "500mA"; VariantName = "[No Variations]"
Change component parameters (AddParameter): Name = "Manufacturer"; Value = "Bel Fuse Inc."; VariantName = "[No Variations]"
Change component parameters (AddParameter): Name = "Manufacturer Part Number"; Value = "C1F 500"; VariantName = "[No Variations]"
Change component parameters (AddParameter): Name = "Max Voltage"; Value = "63VDC"; VariantName = "[No Variations]"
Change component parameters (AddParameter): Name = "Package"; Value = "1206"; VariantName = "[No Variations]"
Change component parameters (AddParameter): Name = "Short Circuit Current"; Value = "/"; VariantName = "[No Variations]"
Change component parameters (AddParameter): Name = "Supplier"; Value = "Digi-Key"; VariantName = "[No Variations]"
Change component parameters (AddParameter): Name = "Supplier Part Number"; Value = "507-1876-1-ND"; VariantName = "[No Variations]"
Change component parameters: Designator = "F6" ("F6"); Footprint = "FUSE_0603"; UniqueID = "\LCXYYCOI\EHNWBUKW" ("\LCXYYCOI\EHNWBUKW")
Change component parameters (AddParameter): Name = "Current"; Value = "500mA"; VariantName = "[No Variations]"
Change component parameters (AddParameter): Name = "Manufacturer"; Value = "Bel Fuse Inc."; VariantName = "[No Variations]"
Change component parameters (AddParameter): Name = "Manufacturer Part Number"; Value = "C1F 500"; VariantName = "[No Variations]"
Change component parameters (AddParameter): Name = "Max Voltage"; Value = "63VDC"; VariantName = "[No Variations]"
Change component parameters (AddParameter): Name = "Package"; Value = "1206"; VariantName = "[No Variations]"
Change component parameters (AddParameter): Name = "Short Circuit Current"; Value = "/"; VariantName = "[No Variations]"
Change component parameters (AddParameter): Name = "Supplier"; Value = "Digi-Key"; VariantName = "[No Variations]"
Change component parameters (AddParameter): Name = "Supplier Part Number"; Value = "507-1876-1-ND"; VariantName = "[No Variations]"
Change component parameters: Designator = "F7" ("F7"); Footprint = "FUSE_0603"; UniqueID = "\LCXYYCOI\TGAHMLQQ" ("\LCXYYCOI\TGAHMLQQ")
Change component parameters (AddParameter): Name = "Current"; Value = "500mA"; VariantName = "[No Variations]"
Change component parameters (AddParameter): Name = "Manufacturer"; Value = "Bel Fuse Inc."; VariantName = "[No Variations]"
Change component parameters (AddParameter): Name = "Manufacturer Part Number"; Value = "C1F 500"; VariantName = "[No Variations]"
Change component parameters (AddParameter): Name = "Max Voltage"; Value = "63VDC"; VariantName = "[No Variations]"
Change component parameters (AddParameter): Name = "Package"; Value = "1206"; VariantName = "[No Variations]"
Change component parameters (AddParameter): Name = "Short Circuit Current"; Value = "/"; VariantName = "[No Variations]"
Change component parameters (AddParameter): Name = "Supplier"; Value = "Digi-Key"; VariantName = "[No Variations]"
Change component parameters (AddParameter): Name = "Supplier Part Number"; Value = "507-1876-1-ND"; VariantName = "[No Variations]"
Change component parameters: Designator = "F8" ("F8"); Footprint = "FUSE_0603"; UniqueID = "\LCXYYCOI\QLTPFNIM" ("\LCXYYCOI\QLTPFNIM")
Change component parameters (AddParameter): Name = "Current"; Value = "500mA"; VariantName = "[No Variations]"
Change component parameters (AddParameter): Name = "Manufacturer"; Value = "Bel Fuse Inc."; VariantName = "[No Variations]"
Change component parameters (AddParameter): Name = "Manufacturer Part Number"; Value = "C1F 500"; VariantName = "[No Variations]"
Change component parameters (AddParameter): Name = "Max Voltage"; Value = "63VDC"; VariantName = "[No Variations]"
Change component parameters (AddParameter): Name = "Package"; Value = "1206"; VariantName = "[No Variations]"
Change component parameters (AddParameter): Name = "Short Circuit Current"; Value = "/"; VariantName = "[No Variations]"
Change component parameters (AddParameter): Name = "Supplier"; Value = "Digi-Key"; VariantName = "[No Variations]"
Change component parameters (AddParameter): Name = "Supplier Part Number"; Value = "507-1876-1-ND"; VariantName = "[No Variations]"
Change component parameters: Designator = "F9" ("F9"); Footprint = "FUSE_0603"; UniqueID = "\LCXYYCOI\TPCBICQA" ("\LCXYYCOI\TPCBICQA")
Change component parameters (AddParameter): Name = "Current"; Value = "500mA"; VariantName = "[No Variations]"
Change component parameters (AddParameter): Name = "Manufacturer"; Value = "Bel Fuse Inc."; VariantName = "[No Variations]"
Change component parameters (AddParameter): Name = "Manufacturer Part Number"; Value = "C1F 500"; VariantName = "[No Variations]"
Change component parameters (AddParameter): Name = "Max Voltage"; Value = "63VDC"; VariantName = "[No Variations]"
Change component parameters (AddParameter): Name = "Package"; Value = "1206"; VariantName = "[No Variations]"
Change component parameters (AddParameter): Name = "Short Circuit Current"; Value = "/"; VariantName = "[No Variations]"
Change component parameters (AddParameter): Name = "Supplier"; Value = "Digi-Key"; VariantName = "[No Variations]"
Change component parameters (AddParameter): Name = "Supplier Part Number"; Value = "507-1876-1-ND"; VariantName = "[No Variations]"
Change component parameters: Designator = "F10" ("F10"); Footprint = "FUSE_0603"; UniqueID = "\LCXYYCOI\XZJNZCCO" ("\LCXYYCOI\XZJNZCCO")
Change component parameters (AddParameter): Name = "Current"; Value = "500mA"; VariantName = "[No Variations]"
Change component parameters (AddParameter): Name = "Manufacturer"; Value = "Bel Fuse Inc."; VariantName = "[No Variations]"
Change component parameters (AddParameter): Name = "Manufacturer Part Number"; Value = "C1F 500"; VariantName = "[No Variations]"
Change component parameters (AddParameter): Name = "Max Voltage"; Value = "63VDC"; VariantName = "[No Variations]"
Change component parameters (AddParameter): Name = "Package"; Value = "1206"; VariantName = "[No Variations]"
Change component parameters (AddParameter): Name = "Short Circuit Current"; Value = "/"; VariantName = "[No Variations]"
Change component parameters (AddParameter): Name = "Supplier"; Value = "Digi-Key"; VariantName = "[No Variations]"
Change component parameters (AddParameter): Name = "Supplier Part Number"; Value = "507-1876-1-ND"; VariantName = "[No Variations]"
Added Component: Designator=FGP0_12V(FUSE_1206)
Add component (AddParameter): Name = "Current"; Value = "500mA"; VariantName = "[No Variations]"
Add component (AddParameter): Name = "Manufacturer"; Value = "Bel Fuse Inc."; VariantName = "[No Variations]"
Add component (AddParameter): Name = "Manufacturer Part Number"; Value = "C1F 500"; VariantName = "[No Variations]"
Add component (AddParameter): Name = "Max Voltage"; Value = "63VDC"; VariantName = "[No Variations]"
Add component (AddParameter): Name = "Package"; Value = "1206"; VariantName = "[No Variations]"
Add component (AddParameter): Name = "Short Circuit Current"; Value = "/"; VariantName = "[No Variations]"
Add component (AddParameter): Name = "Supplier"; Value = "Digi-Key"; VariantName = "[No Variations]"
Add component (AddParameter): Name = "Supplier Part Number"; Value = "507-1876-1-ND"; VariantName = "[No Variations]"
Added Component: Designator=FGP1_3V3(FUSE_1206)
Add component (AddParameter): Name = "Current"; Value = "500mA"; VariantName = "[No Variations]"
Add component (AddParameter): Name = "Manufacturer"; Value = "Bel Fuse Inc."; VariantName = "[No Variations]"
Add component (AddParameter): Name = "Manufacturer Part Number"; Value = "C1F 500"; VariantName = "[No Variations]"
Add component (AddParameter): Name = "Max Voltage"; Value = "63VDC"; VariantName = "[No Variations]"
Add component (AddParameter): Name = "Package"; Value = "1206"; VariantName = "[No Variations]"
Add component (AddParameter): Name = "Short Circuit Current"; Value = "/"; VariantName = "[No Variations]"
Add component (AddParameter): Name = "Supplier"; Value = "Digi-Key"; VariantName = "[No Variations]"
Add component (AddParameter): Name = "Supplier Part Number"; Value = "507-1876-1-ND"; VariantName = "[No Variations]"
Added Component: Designator=FGP1_5V(FUSE_1206)
Add component (AddParameter): Name = "Current"; Value = "500mA"; VariantName = "[No Variations]"
Add component (AddParameter): Name = "Manufacturer"; Value = "Bel Fuse Inc."; VariantName = "[No Variations]"
Add component (AddParameter): Name = "Manufacturer Part Number"; Value = "C1F 500"; VariantName = "[No Variations]"
Add component (AddParameter): Name = "Max Voltage"; Value = "63VDC"; VariantName = "[No Variations]"
Add component (AddParameter): Name = "Package"; Value = "1206"; VariantName = "[No Variations]"
Add component (AddParameter): Name = "Short Circuit Current"; Value = "/"; VariantName = "[No Variations]"
Add component (AddParameter): Name = "Supplier"; Value = "Digi-Key"; VariantName = "[No Variations]"
Add component (AddParameter): Name = "Supplier Part Number"; Value = "507-1876-1-ND"; VariantName = "[No Variations]"
Added Component: Designator=FGPO_5V(FUSE_1206)
Add component (AddParameter): Name = "Current"; Value = "500mA"; VariantName = "[No Variations]"
Add component (AddParameter): Name = "Manufacturer"; Value = "Bel Fuse Inc."; VariantName = "[No Variations]"
Add component (AddParameter): Name = "Manufacturer Part Number"; Value = "C1F 500"; VariantName = "[No Variations]"
Add component (AddParameter): Name = "Max Voltage"; Value = "63VDC"; VariantName = "[No Variations]"
Add component (AddParameter): Name = "Package"; Value = "1206"; VariantName = "[No Variations]"
Add component (AddParameter): Name = "Short Circuit Current"; Value = "/"; VariantName = "[No Variations]"
Add component (AddParameter): Name = "Supplier"; Value = "Digi-Key"; VariantName = "[No Variations]"
Add component (AddParameter): Name = "Supplier Part Number"; Value = "507-1876-1-ND"; VariantName = "[No Variations]"
Added Pin To Net: NetName=LV_12V_PRT Pin=F5-1
Added Pin To Net: NetName=NetF5_2 Pin=F6-1
Added Pin To Net: NetName=LV_8V_PRT Pin=F6-2
Added Pin To Net: NetName=NetF7_2 Pin=F8-1
Added Pin To Net: NetName=LV_12V_PRT Pin=FGP0_12V-2
Added Pin To Net: NetName=LV_3V3_PRT Pin=FGP1_3V3-2
Added Pin To Net: NetName=LV_5V_PRT Pin=FGP1_5V-2
Added Pin To Net: NetName=LV_5V_PRT Pin=FGPO_5V-2
Added Pin To Net: NetName=NetF5_2 Pin=Q2-2
Added Pin To Net: NetName=NetF7_2 Pin=Q4-2
Added Pin To Net: NetName=NetF9_2 Pin=F9-2
Added Pin To Net: NetName=NetF9_2 Pin=F10-1
Added Pin To Net: NetName=NetF9_2 Pin=R34-2
Added Pin To Net: NetName=NetF9_2 Pin=R35-2
Added Net: Name=NetF9_2
Added Pin To Net: NetName=NetFGP0_12V_1 Pin=FGP0_12V-1
Added Pin To Net: NetName=NetFGP0_12V_1 Pin=FGPO_5V-1
Added Pin To Net: NetName=NetFGP0_12V_1 Pin=R58-2
Added Pin To Net: NetName=NetFGP0_12V_1 Pin=R59-2
Added Net: Name=NetFGP0_12V_1
Added Pin To Net: NetName=NetFGP1_3V3_1 Pin=FGP1_3V3-1
Added Pin To Net: NetName=NetFGP1_3V3_1 Pin=FGP1_5V-1
Added Pin To Net: NetName=NetFGP1_3V3_1 Pin=R25-2
Added Pin To Net: NetName=NetFGP1_3V3_1 Pin=R29-2
Added Net: Name=NetFGP1_3V3_1
