Removed Pin From Net: NetName=conn_0_out_+ Pin=GPIO-1
Removed Pin From Net: NetName=conn_1_out_+ Pin=GPIO-3
Added Pin To Net: NetName=conn_1_out_+ Pin=GPIO-1
Added Pin To Net: NetName=conn_0_out_+ Pin=GPIO-3
Change Net Name : Old Net Name=MCU_ADPT_DI_3V3_GPIO_0- New Net Name=MCU_ADPT_DI_3V3_GPIO_1-
Change Net Name : Old Net Name=MCU_ADPT_DI_3V3_GPIO_1- New Net Name=MCU_ADPT_DI_3V3_GPIO_0-
