Removed Pin From Net: NetName=NetF5_1 Pin=GP0-1
Removed Pin From Net: NetName=LV_12V_PRT Pin=GP0-2
Removed Pin From Net: NetName=NetF5_1 Pin=GP0-3
Removed Pin From Net: NetName=LV_5V_PRT Pin=GP0-4
Removed Pin From Net: NetName=NetF5_1 Pin=GP0-5
Removed Pin From Net: NetName=LV_3V3_PRT Pin=GP0-6
Removed Pin From Net: NetName=NetF6_1 Pin=GP1-1
Removed Pin From Net: NetName=LV_12V_PRT Pin=GP1-2
Removed Pin From Net: NetName=NetF6_1 Pin=GP1-3
Removed Pin From Net: NetName=LV_5V_PRT Pin=GP1-4
Removed Pin From Net: NetName=NetF6_1 Pin=GP1-5
Removed Pin From Net: NetName=LV_3V3_PRT Pin=GP1-6
Added Component: Designator=X0_3V3(CONN_HEADER_M_1x2)
Add component (AddParameter): Name = "configuration & pole"; Value = "1x2M"; VariantName = "[No Variations]"
Add component (AddParameter): Name = "Pitch spacing"; Value = "2.54 mm"; VariantName = "[No Variations]"
Add component (AddParameter): Name = "Suplier"; Value = "Kelco"; VariantName = "[No Variations]"
Add component (AddParameter): Name = "Supplier part number"; Value = "15048"; VariantName = "[No Variations]"
Add component (AddParameter): Name = "Type"; Value = "Header"; VariantName = "[No Variations]"
Added Component: Designator=X0_5V(CONN_HEADER_M_1x2)
Add component (AddParameter): Name = "configuration & pole"; Value = "1x2M"; VariantName = "[No Variations]"
Add component (AddParameter): Name = "Pitch spacing"; Value = "2.54 mm"; VariantName = "[No Variations]"
Add component (AddParameter): Name = "Suplier"; Value = "Kelco"; VariantName = "[No Variations]"
Add component (AddParameter): Name = "Supplier part number"; Value = "15048"; VariantName = "[No Variations]"
Add component (AddParameter): Name = "Type"; Value = "Header"; VariantName = "[No Variations]"
Added Component: Designator=X0_12V(CONN_HEADER_M_1x2)
Add component (AddParameter): Name = "configuration & pole"; Value = "1x2M"; VariantName = "[No Variations]"
Add component (AddParameter): Name = "Pitch spacing"; Value = "2.54 mm"; VariantName = "[No Variations]"
Add component (AddParameter): Name = "Suplier"; Value = "Kelco"; VariantName = "[No Variations]"
Add component (AddParameter): Name = "Supplier part number"; Value = "15048"; VariantName = "[No Variations]"
Add component (AddParameter): Name = "Type"; Value = "Header"; VariantName = "[No Variations]"
Added Component: Designator=X1_3V3(CONN_HEADER_M_1x2)
Add component (AddParameter): Name = "configuration & pole"; Value = "1x2M"; VariantName = "[No Variations]"
Add component (AddParameter): Name = "Pitch spacing"; Value = "2.54 mm"; VariantName = "[No Variations]"
Add component (AddParameter): Name = "Suplier"; Value = "Kelco"; VariantName = "[No Variations]"
Add component (AddParameter): Name = "Supplier part number"; Value = "15048"; VariantName = "[No Variations]"
Add component (AddParameter): Name = "Type"; Value = "Header"; VariantName = "[No Variations]"
Added Component: Designator=X1_5V(CONN_HEADER_M_1x2)
Add component (AddParameter): Name = "configuration & pole"; Value = "1x2M"; VariantName = "[No Variations]"
Add component (AddParameter): Name = "Pitch spacing"; Value = "2.54 mm"; VariantName = "[No Variations]"
Add component (AddParameter): Name = "Suplier"; Value = "Kelco"; VariantName = "[No Variations]"
Add component (AddParameter): Name = "Supplier part number"; Value = "15048"; VariantName = "[No Variations]"
Add component (AddParameter): Name = "Type"; Value = "Header"; VariantName = "[No Variations]"
Added Component: Designator=X1_12V(CONN_HEADER_M_1x2)
Add component (AddParameter): Name = "configuration & pole"; Value = "1x2M"; VariantName = "[No Variations]"
Add component (AddParameter): Name = "Pitch spacing"; Value = "2.54 mm"; VariantName = "[No Variations]"
Add component (AddParameter): Name = "Suplier"; Value = "Kelco"; VariantName = "[No Variations]"
Add component (AddParameter): Name = "Supplier part number"; Value = "15048"; VariantName = "[No Variations]"
Add component (AddParameter): Name = "Type"; Value = "Header"; VariantName = "[No Variations]"
Added Pin To Net: NetName=NetF5_1 Pin=X0_3V3-1
Added Pin To Net: NetName=LV_3V3_PRT Pin=X0_3V3-2
Added Pin To Net: NetName=NetF5_1 Pin=X0_5V-1
Added Pin To Net: NetName=LV_5V_PRT Pin=X0_5V-2
Added Pin To Net: NetName=NetF5_1 Pin=X0_12V-1
Added Pin To Net: NetName=LV_12V_PRT Pin=X0_12V-2
Added Pin To Net: NetName=NetF6_1 Pin=X1_3V3-1
Added Pin To Net: NetName=LV_3V3_PRT Pin=X1_3V3-2
Added Pin To Net: NetName=NetF6_1 Pin=X1_5V-1
Added Pin To Net: NetName=LV_5V_PRT Pin=X1_5V-2
Added Pin To Net: NetName=NetF6_1 Pin=X1_12V-1
Added Pin To Net: NetName=LV_12V_PRT Pin=X1_12V-2
