Removed Pin From Net: NetName=conn_1_out_+ Pin=GPIO-1
Removed Pin From Net: NetName=conn_0_out_+ Pin=GPIO-2
Removed Pin From Net: NetName=MCU_ADPT_DI_3V3_GPIO_0- Pin=GPIO-3
Removed Pin From Net: NetName=MCU_ADPT_DI_3V3_GPIO_1- Pin=GPIO-4
Added Pin To Net: NetName=conn_0_out_+ Pin=GPIO-1
Added Pin To Net: NetName=conn_1_out_+ Pin=GPIO-2
Added Pin To Net: NetName=MCU_ADPT_DI_3V3_GPIO_1- Pin=GPIO-3
Added Pin To Net: NetName=MCU_ADPT_DI_3V3_GPIO_0- Pin=GPIO-4
