Change component parameters: Designator = "TVS1" ("TVS1"); Footprint = "DO214AA"; UniqueID = "\BEBQHIBH\WMUCZOZV" ("\BEBQHIBH\WMUCZOZV")
Change component parameters (AddParameter): Name = "BlockVoltage"; Value = "31.1V"; VariantName = "[No Variations]"
Change component parameters (AddParameter): Name = "Manufacturer"; Value = "Eaton - Electronics Division"; VariantName = "[No Variations]"
Change component parameters (AddParameter): Name = "Manufacturer Part Number"; Value = "10BJ28A"; VariantName = "[No Variations]"
Change component parameters (AddParameter): Name = "Package"; Value = "DO-214AA, SMB"; VariantName = "[No Variations]"
Change component parameters (AddParameter): Name = "Power"; Value = "1000W (1kW)"; VariantName = "[No Variations]"
Change component parameters (AddParameter): Name = "Supplier"; Value = "Digi-Key"; VariantName = "[No Variations]"
Change component parameters (AddParameter): Name = "Supplier Part Number"; Value = "283-10BJ28ACT-ND"; VariantName = "[No Variations]"
Change component parameters: Designator = "TVS2" ("TVS2"); Footprint = "DO214AA"; UniqueID = "\EDKAKXNC\AMJOBBKI" ("\EDKAKXNC\AMJOBBKI")
Change component parameters (AddParameter): Name = "BlockVoltage"; Value = "31.1V"; VariantName = "[No Variations]"
Change component parameters (AddParameter): Name = "Manufacturer"; Value = "Eaton - Electronics Division"; VariantName = "[No Variations]"
Change component parameters (AddParameter): Name = "Manufacturer Part Number"; Value = "10BJ28A"; VariantName = "[No Variations]"
Change component parameters (AddParameter): Name = "Package"; Value = "DO-214AA, SMB"; VariantName = "[No Variations]"
Change component parameters (AddParameter): Name = "Power"; Value = "1000W (1kW)"; VariantName = "[No Variations]"
Change component parameters (AddParameter): Name = "Supplier"; Value = "Digi-Key"; VariantName = "[No Variations]"
Change component parameters (AddParameter): Name = "Supplier Part Number"; Value = "283-10BJ28ACT-ND"; VariantName = "[No Variations]"
Change component parameters: Designator = "TVS3" ("TVS3"); Footprint = "DO214AA"; UniqueID = "\EDKAKXNC\CIBMSRBY" ("\EDKAKXNC\CIBMSRBY")
Change component parameters (AddParameter): Name = "BlockVoltage"; Value = "31.1V"; VariantName = "[No Variations]"
Change component parameters (AddParameter): Name = "Manufacturer"; Value = "Eaton - Electronics Division"; VariantName = "[No Variations]"
Change component parameters (AddParameter): Name = "Manufacturer Part Number"; Value = "10BJ28A"; VariantName = "[No Variations]"
Change component parameters (AddParameter): Name = "Package"; Value = "DO-214AA, SMB"; VariantName = "[No Variations]"
Change component parameters (AddParameter): Name = "Power"; Value = "1000W (1kW)"; VariantName = "[No Variations]"
Change component parameters (AddParameter): Name = "Supplier"; Value = "Digi-Key"; VariantName = "[No Variations]"
Change component parameters (AddParameter): Name = "Supplier Part Number"; Value = "283-10BJ28ACT-ND"; VariantName = "[No Variations]"
